Sobre los Tweets en el Paro Nacional
…
   lines = gsub("\";", "';", gsub(";\"", ";'", readLines(csv)))
   
   cols = c(username = "NULL", date = "POSIXct", text = "character", geo = "NULL")
   
   df = read.csv2(text = lines, colClasses = cols, na.strings = "", quote = "'")
   
   df$user = gsub("^https://twitter.com/(\\w+)/status/\\d+$", "@\\1", df$permalink)
   
   df$id = as.numeric(df$id)
   
   tibble::as_tibble(df)}

Finalmente para leer los tweets recuperados: read.twts("output_got.csv")

## # A tibble: 244 x 9
##    date                retweets favorites text  mentions hashtags      id
##    <dttm>                 <int>     <int> <chr> <chr>    <chr>      <dbl>
##  1 2019-10-14 14:15:00      183       109 "La ~ <NA>     #prensa~ 1.18e18
##  2 2019-10-13 21:43:00       84       133 "#AT~ <NA>     #ATENCI~ 1.18e18
##  3 2019-10-13 20:11:00       47       111 "Aqu~ <NA>     #SomosC~ 1.18e18
##  4 2019-10-13 17:30:00       66        66 "#Lo~ <NA>     #LoQueN~ 1.18e18
##  5 2019-10-13 17:25:00      207       176 "#Ur~ <NA>     #Urgent~ 1.18e18
##  6 2019-10-13 17:19:00       73        49 "#UL~ @AnonsW~ #ULTIMO~ 1.18e18
##  7 2019-10-13 17:15:00      106        96 "#Ah~ <NA>     #Ahora ~ 1.18e18
##  8 2019-10-13 17:14:00      228       238 "Pes~ <NA>     #ParoNa~ 1.18e18
##  9 2019-10-13 16:57:00      312       242 "Anu~ <NA>     #ParoNa~ 1.18e18
## 10 2019-10-13 16:17:00       65        62 "Asi~ <NA>     #ParoNa~ 1.18e18
## # ... with 234 more rows, and 2 more variables: permalink <chr>, user <chr>
…
