…
Looking at the screenshot above (figure 1), the table tag
is written <table id="countrytable">; since it is the only tag
with that id in the whole page —it is the only table, by the way— we can specify the
following selector:

library(dplyr)

html_node(rvest_doc, "#countrytable") %>% html_table() %>% as_tibble()

## # A tibble: 260 x 6
##      No. Country    `Contributors (organis~ `Created element~ `Modified element~
##    <dbl> <chr>      <chr>                               <int>              <int>
##  1     1 Puerto Ri~ 1 (0%)                                 53                 15
##  2     2 Liberia    1 (0%)                               9464               1695
##  3     3 Vanuatu    1 (0%)                                  0                  4
##  4     4 Curaçao    1 (0%)                                  5                  2
##  5     5 Cape Verde 1 (0%)                                 12                 25
##  6     6 Mauritius  1 (0%)                                  0                  3
##  7     7 Oman       1 (0%)                                  0                  3
##  8     8 Jordan     1 (0%)                                 47                 10
##  9     9 Monaco     1 (0%)                                  0                  1
## 10    10 Haiti      1 (0%)                                216                201
## # ... with 250 more rows, and 1 more variable: Deleted elements <int>
…
