…
Una vez obtenido el documento, es posible extraer el <table> con rvest::html_node().
Esta función ofrece dos opciones para especificar la búsqueda de un tag, que será
devuelto como un objeto xml_node3. La primera opción es
suministrar un selector CSS4 que seleccione (valga la
redundancia) de manera exacta el tag que buscamos.

Observando la captura de pantalla (figura 1), descubriremos que el tag de la
tabla está escrito así: <table id="countrytable">; puesto que es el único tag con ese id
en toda la página —además es la única tabla— podemos utilizar el siguiente selector:

library(dplyr)

html_node(rvest_doc, "#countrytable") %>% html_table() %>% as_tibble()

## # A tibble: 260 x 6
##      No. Country    `Contributors (organis~ `Created element~ `Modified element~
##    <dbl> <chr>      <chr>                               <int>              <int>
##  1     1 Puerto Ri~ 1 (0%)                                 53                 15
##  2     2 Liberia    1 (0%)                               9464               1695
##  3     3 Vanuatu    1 (0%)                                  0                  4
##  4     4 Curaçao    1 (0%)                                  5                  2
##  5     5 Cape Verde 1 (0%)                                 12                 25
##  6     6 Mauritius  1 (0%)                                  0                  3
##  7     7 Oman       1 (0%)                                  0                  3
##  8     8 Jordan     1 (0%)                                 47                 10
##  9     9 Monaco     1 (0%)                                  0                  1
## 10    10 Haiti      1 (0%)                                216                201
## # ... with 250 more rows, and 1 more variable: Deleted elements <int>
…
