…
   class = c(date = "POSIXct", mentions = "NULL", hashtags = "NULL", id = "character")
   
   read.csv2(text = lines, colClasses = class, quote = "'", na.strings = "") %>%
      mutate(user = sub("^https://twitter.com/(\\w+)/status/\\d+$", "@\\1", permalink),
             text = sub("https://twitter.com/.+$", "", text),
             text = sub("pic.twitter.com/.+$", "", text),
             ht = paste0("#", hashtag)) %>%
      select(ht, id, time = date, text, user, retweets, favorites) %>%
      as_tibble()
}

readHashTag("ParoNacionalEcuador")

## # A tibble: 244 x 7
##    ht       id      time                text           user   retweets favorites
##    <chr>    <chr>   <dttm>              <chr>          <chr>     <int>     <int>
##  1 #ParoNa~ 118382~ 2019-10-14 14:15:00 "La #prensa f~ @FUND~      183       109
##  2 #ParoNa~ 118357~ 2019-10-13 21:43:00 "#ATENCIÓN ES~ @kole~       84       133
##  3 #ParoNa~ 118355~ 2019-10-13 20:11:00 "Aquellos que~ @Kati~       47       111
##  4 #ParoNa~ 118351~ 2019-10-13 17:30:00 "#LoQueNoVera~ @Isma~       66        66
##  5 #ParoNa~ 118350~ 2019-10-13 17:25:00 "#Urgente #AT~ @ecua~      207       176
##  6 #ParoNa~ 118350~ 2019-10-13 17:19:00 "#ULTIMOMOMEN~ @Chal~       73        49
##  7 #ParoNa~ 118350~ 2019-10-13 17:15:00 "#Ahora | Cac~ @xime~      106        96
##  8 #ParoNa~ 118350~ 2019-10-13 17:14:00 "Pese al Esta~ @reli~      228       238
##  9 #ParoNa~ 118350~ 2019-10-13 16:57:00 "Anunciamos a~ @radi~      312       242
## 10 #ParoNa~ 118349~ 2019-10-13 16:17:00 "Asi luce la ~ @reli~       65        62
## # ... with 234 more rows
…
